6.3
        if (signIn != null) {
            HttpSession session = request.getSession();
            printThanks(servletOut, signIn, "Greeting");
            session.setAttribute("signIn", signIn);
